id;title;text;dateCreated;dateComplited;isComplited
0;title0;text0;01/05/2020 00:00:00;02/02/2020 00:00:00;False
1;title1;text1;03/03/2020 00:00:00;02/02/2020 00:00:00;True
3;title2;text2;03/03/2020 00:00:00;02/02/2020 00:00:00;False
4;title3;text3;07/20/2020 16:27:04;07/20/2020 16:27:04;False

